^C:\USERS\MARCIN\DESKTOP\PROJEKT!!\PRZYCHODNIA V1.0\PRZYCHODNIA ZDROWIA\PRZYCHODNIA ZDROWIA\FORM1.RESX
C:\WINDOWS\ASSEMBLY\PUBPOL43.DAT
C:\WINDOWS\MICROSOFT.NET\ASSEMBLY\GAC_MSIL\MICROSOFT.BUILD.TASKS.V4.0\V4.0_4.0.0.0__B03F5F7F11D50A3A\MICROSOFT.BUILD.TASKS.V4.0.DLL
^C:\USERS\MARCIN\DESKTOP\PROJEKT!!\PRZYCHODNIA V1.0\PRZYCHODNIA ZDROWIA\PRZYCHODNIA ZDROWIA\MODUL REJESTRACJI.RESX
^C:\USERS\MARCIN\DESKTOP\PROJEKT!!\PRZYCHODNIA V1.0\PRZYCHODNIA ZDROWIA\PRZYCHODNIA ZDROWIA\MODUL RECEPCJI.RESX
^C:\USERS\MARCIN\DESKTOP\PROJEKT!!\PRZYCHODNIA V1.0\PRZYCHODNIA ZDROWIA\PRZYCHODNIA ZDROWIA\PROPERTIES\RESOURCES.RESX
C:\USERS\MARCIN\DESKTOP\PROJEKT!!\PRZYCHODNIA V1.0\PRZYCHODNIA ZDROWIA\PRZYCHODNIA ZDROWIA\RESOURCES\IMAGE0034.JPG
C:\USERS\MARCIN\DESKTOP\PROJEKT!!\PRZYCHODNIA V1.0\PRZYCHODNIA ZDROWIA\PRZYCHODNIA ZDROWIA\RESOURCES\REJESTRACJA2.JPG
C:\USERS\MARCIN\DESKTOP\PROJEKT!!\PRZYCHODNIA V1.0\PRZYCHODNIA ZDROWIA\PRZYCHODNIA ZDROWIA\RESOURCES\REJESTRACJA.JPG
C:\USERS\MARCIN\DESKTOP\PROJEKT!!\PRZYCHODNIA V1.0\PRZYCHODNIA ZDROWIA\PRZYCHODNIA ZDROWIA\RESOURCES\ACTIONS-USER-GROUP-NEW-ICON1.PNG
C:\USERS\MARCIN\DESKTOP\PROJEKT!!\PRZYCHODNIA V1.0\PRZYCHODNIA ZDROWIA\PRZYCHODNIA ZDROWIA\RESOURCES\MEDYCYNA_D.JPG
C:\USERS\MARCIN\DESKTOP\PROJEKT!!\PRZYCHODNIA V1.0\PRZYCHODNIA ZDROWIA\PRZYCHODNIA ZDROWIA\RESOURCES\PEOPLE-DOCTOR-FEMALE-ICON2.PNG
C:\USERS\MARCIN\DESKTOP\PROJEKT!!\PRZYCHODNIA V1.0\PRZYCHODNIA ZDROWIA\PRZYCHODNIA ZDROWIA\RESOURCES\REJESTRACJA1.JPG
C:\USERS\MARCIN\DESKTOP\PROJEKT!!\PRZYCHODNIA V1.0\PRZYCHODNIA ZDROWIA\PRZYCHODNIA ZDROWIA\RESOURCES\PEOPLE-DOCTOR-FEMALE-ICON1.PNG
C:\USERS\MARCIN\DESKTOP\PROJEKT!!\PRZYCHODNIA V1.0\PRZYCHODNIA ZDROWIA\PRZYCHODNIA ZDROWIA\RESOURCES\OKNO LOGOWANIA.JPG
C:\USERS\MARCIN\DESKTOP\PROJEKT!!\PRZYCHODNIA V1.0\PRZYCHODNIA ZDROWIA\PRZYCHODNIA ZDROWIA\RESOURCES\PEOPLE-DOCTOR-FEMALE-ICON.PNG
C:\USERS\MARCIN\DESKTOP\PROJEKT!!\PRZYCHODNIA V1.0\PRZYCHODNIA ZDROWIA\PRZYCHODNIA ZDROWIA\RESOURCES\RECEPCJONISTKA.JPG
C:\USERS\MARCIN\DESKTOP\PROJEKT!!\PRZYCHODNIA V1.0\PRZYCHODNIA ZDROWIA\PRZYCHODNIA ZDROWIA\RESOURCES\ACTIONS-USER-GROUP-NEW-ICON.PNG
C:\USERS\MARCIN\DESKTOP\PROJEKT!!\PRZYCHODNIA V1.0\PRZYCHODNIA ZDROWIA\PRZYCHODNIA ZDROWIA\RESOURCES\OK-ICON.PNG
C:\USERS\MARCIN\DESKTOP\PROJEKT!!\PRZYCHODNIA V1.0\PRZYCHODNIA ZDROWIA\PRZYCHODNIA ZDROWIA\RESOURCES\BUTTON-DELETE-ICON.PNG
C:\USERS\MARCIN\DESKTOP\PROJEKT!!\PRZYCHODNIA V1.0\PRZYCHODNIA ZDROWIA\PRZYCHODNIA ZDROWIA\RESOURCES\APP-LOGIN-MANAGER-ICON.PNG
C:\USERS\MARCIN\DESKTOP\PROJEKT!!\PRZYCHODNIA V1.0\PRZYCHODNIA ZDROWIA\PRZYCHODNIA ZDROWIA\RESOURCES\BIALY.PNG
C:\USERS\MARCIN\DESKTOP\PROJEKT!!\PRZYCHODNIA V1.0\PRZYCHODNIA ZDROWIA\PRZYCHODNIA ZDROWIA\RESOURCES\DELETE-FILE-ICON2.PNG
C:\USERS\MARCIN\DESKTOP\PROJEKT!!\PRZYCHODNIA V1.0\PRZYCHODNIA ZDROWIA\PRZYCHODNIA ZDROWIA\RESOURCES\LOG-OUT-ICON.PNG
C:\USERS\MARCIN\DESKTOP\PROJEKT!!\PRZYCHODNIA V1.0\PRZYCHODNIA ZDROWIA\PRZYCHODNIA ZDROWIA\RESOURCES\ACTION-EXIT-ICON1.PNG
C:\USERS\MARCIN\DESKTOP\PROJEKT!!\PRZYCHODNIA V1.0\PRZYCHODNIA ZDROWIA\PRZYCHODNIA ZDROWIA\RESOURCES\ACTION-EXIT-ICON.PNG
C:\USERS\MARCIN\DESKTOP\PROJEKT!!\PRZYCHODNIA V1.0\PRZYCHODNIA ZDROWIA\PRZYCHODNIA ZDROWIA\RESOURCES\LOG-OUT-ICON1.PNG
C:\USERS\MARCIN\DESKTOP\PROJEKT!!\PRZYCHODNIA V1.0\PRZYCHODNIA ZDROWIA\PRZYCHODNIA ZDROWIA\RESOURCES\HOSPITAL-ICON_0.JPG
C:\USERS\MARCIN\DESKTOP\PROJEKT!!\PRZYCHODNIA V1.0\PRZYCHODNIA ZDROWIA\PRZYCHODNIA ZDROWIA\RESOURCES\ACTION-EXIT-ICON2.PNG
C:\USERS\MARCIN\DESKTOP\PROJEKT!!\PRZYCHODNIA V1.0\PRZYCHODNIA ZDROWIA\PRZYCHODNIA ZDROWIA\RESOURCES\LOGO_PRZYCHODNIA.PNG
C:\USERS\MARCIN\DESKTOP\PROJEKT!!\PRZYCHODNIA V1.0\PRZYCHODNIA ZDROWIA\PRZYCHODNIA ZDROWIA\RESOURCES\PILL-ICON.PNG
C:\USERS\MARCIN\DESKTOP\PROJEKT!!\PRZYCHODNIA V1.0\PRZYCHODNIA ZDROWIA\PRZYCHODNIA ZDROWIA\RESOURCES\DOCUMENTS-ICON.PNG
C:\USERS\MARCIN\DESKTOP\PROJEKT!!\PRZYCHODNIA V1.0\PRZYCHODNIA ZDROWIA\PRZYCHODNIA ZDROWIA\RESOURCES\LOGO_PRZYCHODNIA1.PNG
C:\USERS\MARCIN\DESKTOP\PROJEKT!!\PRZYCHODNIA V1.0\PRZYCHODNIA ZDROWIA\PRZYCHODNIA ZDROWIA\RESOURCES\TłO_PACJ.PNG
C:\USERS\MARCIN\DESKTOP\PROJEKT!!\PRZYCHODNIA V1.0\PRZYCHODNIA ZDROWIA\PRZYCHODNIA ZDROWIA\RESOURCES\ACTIONS-DOCUMENT-EDIT-ICON.PNG
C:\USERS\MARCIN\DESKTOP\PROJEKT!!\PRZYCHODNIA V1.0\PRZYCHODNIA ZDROWIA\PRZYCHODNIA ZDROWIA\RESOURCES\TEXT-DOCUMENT-ICON.PNG
C:\USERS\MARCIN\DESKTOP\PROJEKT!!\PRZYCHODNIA V1.0\PRZYCHODNIA ZDROWIA\PRZYCHODNIA ZDROWIA\RESOURCES\RECENT-DOCUMENTS-ICON.PNG
C:\USERS\MARCIN\DESKTOP\PROJEKT!!\PRZYCHODNIA V1.0\PRZYCHODNIA ZDROWIA\PRZYCHODNIA ZDROWIA\RESOURCES\ADD-EVENT-ICON.PNG
C:\USERS\MARCIN\DESKTOP\PROJEKT!!\PRZYCHODNIA V1.0\PRZYCHODNIA ZDROWIA\PRZYCHODNIA ZDROWIA\RESOURCES\YELLOW-CROSS-ICON.PNG
C:\USERS\MARCIN\DESKTOP\PROJEKT!!\PRZYCHODNIA V1.0\PRZYCHODNIA ZDROWIA\PRZYCHODNIA ZDROWIA\RESOURCES\BUTTON-DELETE-ICON (2).PNG
^C:\USERS\MARCIN\DESKTOP\PROJEKT!!\PRZYCHODNIA V1.0\PRZYCHODNIA ZDROWIA\PRZYCHODNIA ZDROWIA\LOGOWANIE.RESX
^C:\USERS\MARCIN\DESKTOP\PROJEKT!!\PRZYCHODNIA V1.0\PRZYCHODNIA ZDROWIA\PRZYCHODNIA ZDROWIA\DODAJ_DYZUR.RESX
C:\WINDOWS\ASSEMBLY\PUBPOL58.DAT
C:\WINDOWS\MICROSOFT.NET\ASSEMBLY\GAC_MSIL\MICROSOFT.BUILD.TASKS.V4.0\V4.0_4.0.0.0__B03F5F7F11D50A3A\MICROSOFT.BUILD.TASKS.V4.0.DLL
^C:\USERS\MARCIN\DESKTOP\PROJEKT!!\PRZYCHODNIA V1.0\PRZYCHODNIA ZDROWIA\PRZYCHODNIA ZDROWIA\REJESTRACJA.RESX
^C:\USERS\MARCIN\DESKTOP\PROJEKT!!\PRZYCHODNIA V1.0\PRZYCHODNIA ZDROWIA\PRZYCHODNIA ZDROWIA\MODUL LEKARZ.RESX
^C:\USERS\MARCIN\DESKTOP\KOPIKO\PROJEKT!!\PRZYCHODNIA V1.0\PRZYCHODNIA ZDROWIA\PRZYCHODNIA ZDROWIA\DODAJ_DYZUR.RESX
C:\WINDOWS\ASSEMBLY\PUBPOL58.DAT
C:\WINDOWS\MICROSOFT.NET\ASSEMBLY\GAC_MSIL\MICROSOFT.BUILD.TASKS.V4.0\V4.0_4.0.0.0__B03F5F7F11D50A3A\MICROSOFT.BUILD.TASKS.V4.0.DLL
^C:\USERS\MARCIN\DESKTOP\KOPIKO\PROJEKT!!\PRZYCHODNIA V1.0\PRZYCHODNIA ZDROWIA\PRZYCHODNIA ZDROWIA\LOGOWANIE.RESX
^C:\USERS\MARCIN\DESKTOP\KOPIKO\PROJEKT!!\PRZYCHODNIA V1.0\PRZYCHODNIA ZDROWIA\PRZYCHODNIA ZDROWIA\PROPERTIES\RESOURCES.RESX
C:\USERS\MARCIN\DESKTOP\KOPIKO\PROJEKT!!\PRZYCHODNIA V1.0\PRZYCHODNIA ZDROWIA\PRZYCHODNIA ZDROWIA\RESOURCES\BIALY.PNG
C:\USERS\MARCIN\DESKTOP\KOPIKO\PROJEKT!!\PRZYCHODNIA V1.0\PRZYCHODNIA ZDROWIA\PRZYCHODNIA ZDROWIA\RESOURCES\HOSPITAL-ICON_0.JPG
C:\USERS\MARCIN\DESKTOP\KOPIKO\PROJEKT!!\PRZYCHODNIA V1.0\PRZYCHODNIA ZDROWIA\PRZYCHODNIA ZDROWIA\RESOURCES\OKNO LOGOWANIA.JPG
C:\USERS\MARCIN\DESKTOP\KOPIKO\PROJEKT!!\PRZYCHODNIA V1.0\PRZYCHODNIA ZDROWIA\PRZYCHODNIA ZDROWIA\RESOURCES\LOGO_PRZYCHODNIA1.PNG
C:\USERS\MARCIN\DESKTOP\KOPIKO\PROJEKT!!\PRZYCHODNIA V1.0\PRZYCHODNIA ZDROWIA\PRZYCHODNIA ZDROWIA\RESOURCES\OK-ICON.PNG
C:\USERS\MARCIN\DESKTOP\KOPIKO\PROJEKT!!\PRZYCHODNIA V1.0\PRZYCHODNIA ZDROWIA\PRZYCHODNIA ZDROWIA\RESOURCES\YELLOW-CROSS-ICON.PNG
C:\USERS\MARCIN\DESKTOP\KOPIKO\PROJEKT!!\PRZYCHODNIA V1.0\PRZYCHODNIA ZDROWIA\PRZYCHODNIA ZDROWIA\RESOURCES\IMAGE0034.JPG
C:\USERS\MARCIN\DESKTOP\KOPIKO\PROJEKT!!\PRZYCHODNIA V1.0\PRZYCHODNIA ZDROWIA\PRZYCHODNIA ZDROWIA\RESOURCES\ACTION-EXIT-ICON.PNG
C:\USERS\MARCIN\DESKTOP\KOPIKO\PROJEKT!!\PRZYCHODNIA V1.0\PRZYCHODNIA ZDROWIA\PRZYCHODNIA ZDROWIA\RESOURCES\PILL-ICON.PNG
C:\USERS\MARCIN\DESKTOP\KOPIKO\PROJEKT!!\PRZYCHODNIA V1.0\PRZYCHODNIA ZDROWIA\PRZYCHODNIA ZDROWIA\RESOURCES\ACTION-EXIT-ICON1.PNG
C:\USERS\MARCIN\DESKTOP\KOPIKO\PROJEKT!!\PRZYCHODNIA V1.0\PRZYCHODNIA ZDROWIA\PRZYCHODNIA ZDROWIA\RESOURCES\REJESTRACJA1.JPG
C:\USERS\MARCIN\DESKTOP\KOPIKO\PROJEKT!!\PRZYCHODNIA V1.0\PRZYCHODNIA ZDROWIA\PRZYCHODNIA ZDROWIA\RESOURCES\ACTIONS-USER-GROUP-NEW-ICON1.PNG
C:\USERS\MARCIN\DESKTOP\KOPIKO\PROJEKT!!\PRZYCHODNIA V1.0\PRZYCHODNIA ZDROWIA\PRZYCHODNIA ZDROWIA\RESOURCES\DELETE-FILE-ICON2.PNG
C:\USERS\MARCIN\DESKTOP\KOPIKO\PROJEKT!!\PRZYCHODNIA V1.0\PRZYCHODNIA ZDROWIA\PRZYCHODNIA ZDROWIA\RESOURCES\LOGO_PRZYCHODNIA.PNG
C:\USERS\MARCIN\DESKTOP\KOPIKO\PROJEKT!!\PRZYCHODNIA V1.0\PRZYCHODNIA ZDROWIA\PRZYCHODNIA ZDROWIA\RESOURCES\RECENT-DOCUMENTS-ICON.PNG
C:\USERS\MARCIN\DESKTOP\KOPIKO\PROJEKT!!\PRZYCHODNIA V1.0\PRZYCHODNIA ZDROWIA\PRZYCHODNIA ZDROWIA\RESOURCES\ACTION-EXIT-ICON2.PNG
C:\USERS\MARCIN\DESKTOP\KOPIKO\PROJEKT!!\PRZYCHODNIA V1.0\PRZYCHODNIA ZDROWIA\PRZYCHODNIA ZDROWIA\RESOURCES\DOCUMENTS-ICON.PNG
C:\USERS\MARCIN\DESKTOP\KOPIKO\PROJEKT!!\PRZYCHODNIA V1.0\PRZYCHODNIA ZDROWIA\PRZYCHODNIA ZDROWIA\RESOURCES\LOG-OUT-ICON.PNG
C:\USERS\MARCIN\DESKTOP\KOPIKO\PROJEKT!!\PRZYCHODNIA V1.0\PRZYCHODNIA ZDROWIA\PRZYCHODNIA ZDROWIA\RESOURCES\TłO_PACJ.PNG
C:\USERS\MARCIN\DESKTOP\KOPIKO\PROJEKT!!\PRZYCHODNIA V1.0\PRZYCHODNIA ZDROWIA\PRZYCHODNIA ZDROWIA\RESOURCES\PEOPLE-DOCTOR-FEMALE-ICON2.PNG
C:\USERS\MARCIN\DESKTOP\KOPIKO\PROJEKT!!\PRZYCHODNIA V1.0\PRZYCHODNIA ZDROWIA\PRZYCHODNIA ZDROWIA\RESOURCES\APP-LOGIN-MANAGER-ICON.PNG
C:\USERS\MARCIN\DESKTOP\KOPIKO\PROJEKT!!\PRZYCHODNIA V1.0\PRZYCHODNIA ZDROWIA\PRZYCHODNIA ZDROWIA\RESOURCES\ACTIONS-USER-GROUP-NEW-ICON.PNG
C:\USERS\MARCIN\DESKTOP\KOPIKO\PROJEKT!!\PRZYCHODNIA V1.0\PRZYCHODNIA ZDROWIA\PRZYCHODNIA ZDROWIA\RESOURCES\BUTTON-DELETE-ICON.PNG
C:\USERS\MARCIN\DESKTOP\KOPIKO\PROJEKT!!\PRZYCHODNIA V1.0\PRZYCHODNIA ZDROWIA\PRZYCHODNIA ZDROWIA\RESOURCES\PEOPLE-DOCTOR-FEMALE-ICON1.PNG
C:\USERS\MARCIN\DESKTOP\KOPIKO\PROJEKT!!\PRZYCHODNIA V1.0\PRZYCHODNIA ZDROWIA\PRZYCHODNIA ZDROWIA\RESOURCES\RECEPCJONISTKA.JPG
C:\USERS\MARCIN\DESKTOP\KOPIKO\PROJEKT!!\PRZYCHODNIA V1.0\PRZYCHODNIA ZDROWIA\PRZYCHODNIA ZDROWIA\RESOURCES\LOG-OUT-ICON1.PNG
C:\USERS\MARCIN\DESKTOP\KOPIKO\PROJEKT!!\PRZYCHODNIA V1.0\PRZYCHODNIA ZDROWIA\PRZYCHODNIA ZDROWIA\RESOURCES\ACTIONS-DOCUMENT-EDIT-ICON.PNG
C:\USERS\MARCIN\DESKTOP\KOPIKO\PROJEKT!!\PRZYCHODNIA V1.0\PRZYCHODNIA ZDROWIA\PRZYCHODNIA ZDROWIA\RESOURCES\TEXT-DOCUMENT-ICON.PNG
C:\USERS\MARCIN\DESKTOP\KOPIKO\PROJEKT!!\PRZYCHODNIA V1.0\PRZYCHODNIA ZDROWIA\PRZYCHODNIA ZDROWIA\RESOURCES\REJESTRACJA.JPG
C:\USERS\MARCIN\DESKTOP\KOPIKO\PROJEKT!!\PRZYCHODNIA V1.0\PRZYCHODNIA ZDROWIA\PRZYCHODNIA ZDROWIA\RESOURCES\REJESTRACJA2.JPG
C:\USERS\MARCIN\DESKTOP\KOPIKO\PROJEKT!!\PRZYCHODNIA V1.0\PRZYCHODNIA ZDROWIA\PRZYCHODNIA ZDROWIA\RESOURCES\MEDYCYNA_D.JPG
C:\USERS\MARCIN\DESKTOP\KOPIKO\PROJEKT!!\PRZYCHODNIA V1.0\PRZYCHODNIA ZDROWIA\PRZYCHODNIA ZDROWIA\RESOURCES\ADD-EVENT-ICON.PNG
C:\USERS\MARCIN\DESKTOP\KOPIKO\PROJEKT!!\PRZYCHODNIA V1.0\PRZYCHODNIA ZDROWIA\PRZYCHODNIA ZDROWIA\RESOURCES\PEOPLE-DOCTOR-FEMALE-ICON.PNG
C:\USERS\MARCIN\DESKTOP\KOPIKO\PROJEKT!!\PRZYCHODNIA V1.0\PRZYCHODNIA ZDROWIA\PRZYCHODNIA ZDROWIA\RESOURCES\BUTTON-DELETE-ICON (2).PNG
C:\USERS\MARCIN\DESKTOP\KOPIKO\PROJEKT!!\PRZYCHODNIA V1.0\PRZYCHODNIA ZDROWIA\PRZYCHODNIA ZDROWIA\RESOURCES\DOCUMENTS-ICON1.PNG
^C:\USERS\MARCIN\DESKTOP\KOPIKO\PROJEKT!!\PRZYCHODNIA V1.0\PRZYCHODNIA ZDROWIA\PRZYCHODNIA ZDROWIA\REJESTRACJA.RESX
^C:\USERS\MARCIN\DESKTOP\KOPIKO\PROJEKT!!\PRZYCHODNIA V1.0\PRZYCHODNIA ZDROWIA\PRZYCHODNIA ZDROWIA\MODUL LEKARZ.RESX
^C:\USERS\MARCIN\DESKTOP\PROJEKT - KOPIA\PROJEKT!!\PRZYCHODNIA V1.0\PRZYCHODNIA ZDROWIA\PRZYCHODNIA ZDROWIA\DODAJ_DYZUR.RESX
C:\WINDOWS\ASSEMBLY\PUBPOL58.DAT
C:\WINDOWS\MICROSOFT.NET\ASSEMBLY\GAC_MSIL\MICROSOFT.BUILD.TASKS.V4.0\V4.0_4.0.0.0__B03F5F7F11D50A3A\MICROSOFT.BUILD.TASKS.V4.0.DLL
^C:\USERS\MARCIN\DESKTOP\PROJEKT - KOPIA\PROJEKT!!\PRZYCHODNIA V1.0\PRZYCHODNIA ZDROWIA\PRZYCHODNIA ZDROWIA\PROPERTIES\RESOURCES.RESX
C:\USERS\MARCIN\DESKTOP\PROJEKT - KOPIA\PROJEKT!!\PRZYCHODNIA V1.0\PRZYCHODNIA ZDROWIA\PRZYCHODNIA ZDROWIA\RESOURCES\OKNO LOGOWANIA1.JPG
C:\USERS\MARCIN\DESKTOP\PROJEKT - KOPIA\PROJEKT!!\PRZYCHODNIA V1.0\PRZYCHODNIA ZDROWIA\PRZYCHODNIA ZDROWIA\RESOURCES\HOSPITAL-ICON_01.JPG
C:\USERS\MARCIN\DESKTOP\PROJEKT - KOPIA\PROJEKT!!\PRZYCHODNIA V1.0\PRZYCHODNIA ZDROWIA\PRZYCHODNIA ZDROWIA\RESOURCES\OK-ICON1.PNG
C:\USERS\MARCIN\DESKTOP\PROJEKT - KOPIA\PROJEKT!!\PRZYCHODNIA V1.0\PRZYCHODNIA ZDROWIA\PRZYCHODNIA ZDROWIA\RESOURCES\ACTION-EXIT-ICON3.PNG
C:\USERS\MARCIN\DESKTOP\PROJEKT - KOPIA\PROJEKT!!\PRZYCHODNIA V1.0\PRZYCHODNIA ZDROWIA\PRZYCHODNIA ZDROWIA\RESOURCES\RECEPCJONISTA.PNG
C:\USERS\MARCIN\DESKTOP\PROJEKT - KOPIA\PROJEKT!!\PRZYCHODNIA V1.0\PRZYCHODNIA ZDROWIA\PRZYCHODNIA ZDROWIA\RESOURCES\PEOPLE-DOCTORKA-ICON.PNG
C:\USERS\MARCIN\DESKTOP\PROJEKT - KOPIA\PROJEKT!!\PRZYCHODNIA V1.0\PRZYCHODNIA ZDROWIA\PRZYCHODNIA ZDROWIA\RESOURCES\PEOPLE-DOCTOR-ICON.PNG
C:\USERS\MARCIN\DESKTOP\PROJEKT - KOPIA\PROJEKT!!\PRZYCHODNIA V1.0\PRZYCHODNIA ZDROWIA\PRZYCHODNIA ZDROWIA\RESOURCES\RECEPCJONISTKA.PNG
C:\USERS\MARCIN\DESKTOP\PROJEKT - KOPIA\PROJEKT!!\PRZYCHODNIA V1.0\PRZYCHODNIA ZDROWIA\PRZYCHODNIA ZDROWIA\RESOURCES\TEXT-DOCUMENT-ICON1.PNG
C:\USERS\MARCIN\DESKTOP\PROJEKT - KOPIA\PROJEKT!!\PRZYCHODNIA V1.0\PRZYCHODNIA ZDROWIA\PRZYCHODNIA ZDROWIA\RESOURCES\ACTIONS-DOCUMENT-EDIT-ICON1.PNG
C:\USERS\MARCIN\DESKTOP\PROJEKT - KOPIA\PROJEKT!!\PRZYCHODNIA V1.0\PRZYCHODNIA ZDROWIA\PRZYCHODNIA ZDROWIA\RESOURCES\LOGO_PRZYCHODNIA2.PNG
C:\USERS\MARCIN\DESKTOP\PROJEKT - KOPIA\PROJEKT!!\PRZYCHODNIA V1.0\PRZYCHODNIA ZDROWIA\PRZYCHODNIA ZDROWIA\RESOURCES\ACTION-EXIT-ICON4.PNG
C:\USERS\MARCIN\DESKTOP\PROJEKT - KOPIA\PROJEKT!!\PRZYCHODNIA V1.0\PRZYCHODNIA ZDROWIA\PRZYCHODNIA ZDROWIA\RESOURCES\PILL-ICON1.PNG
C:\USERS\MARCIN\DESKTOP\PROJEKT - KOPIA\PROJEKT!!\PRZYCHODNIA V1.0\PRZYCHODNIA ZDROWIA\PRZYCHODNIA ZDROWIA\RESOURCES\DOCUMENTS-ICON2.PNG
C:\USERS\MARCIN\DESKTOP\PROJEKT - KOPIA\PROJEKT!!\PRZYCHODNIA V1.0\PRZYCHODNIA ZDROWIA\PRZYCHODNIA ZDROWIA\RESOURCES\DOCUMENTS-ICON3.PNG
C:\USERS\MARCIN\DESKTOP\PROJEKT - KOPIA\PROJEKT!!\PRZYCHODNIA V1.0\PRZYCHODNIA ZDROWIA\PRZYCHODNIA ZDROWIA\RESOURCES\LOG-OUT-ICON2.PNG
C:\USERS\MARCIN\DESKTOP\PROJEKT - KOPIA\PROJEKT!!\PRZYCHODNIA V1.0\PRZYCHODNIA ZDROWIA\PRZYCHODNIA ZDROWIA\RESOURCES\PEOPLE-DOCTOR-FEMALE-ICON3.PNG
C:\USERS\MARCIN\DESKTOP\PROJEKT - KOPIA\PROJEKT!!\PRZYCHODNIA V1.0\PRZYCHODNIA ZDROWIA\PRZYCHODNIA ZDROWIA\RESOURCES\RECEPCJONISTKAICON.PNG
C:\USERS\MARCIN\DESKTOP\PROJEKT - KOPIA\PROJEKT!!\PRZYCHODNIA V1.0\PRZYCHODNIA ZDROWIA\PRZYCHODNIA ZDROWIA\RESOURCES\DOCTORUPDATE.PNG
C:\USERS\MARCIN\DESKTOP\PROJEKT - KOPIA\PROJEKT!!\PRZYCHODNIA V1.0\PRZYCHODNIA ZDROWIA\PRZYCHODNIA ZDROWIA\RESOURCES\DRAWER-ARCHIVE-ICON.PNG
C:\USERS\MARCIN\DESKTOP\PROJEKT - KOPIA\PROJEKT!!\PRZYCHODNIA V1.0\PRZYCHODNIA ZDROWIA\PRZYCHODNIA ZDROWIA\RESOURCES\RECEPCJADELETE.PNG
C:\USERS\MARCIN\DESKTOP\PROJEKT - KOPIA\PROJEKT!!\PRZYCHODNIA V1.0\PRZYCHODNIA ZDROWIA\PRZYCHODNIA ZDROWIA\RESOURCES\CLEAR-ICON.PNG
C:\USERS\MARCIN\DESKTOP\PROJEKT - KOPIA\PROJEKT!!\PRZYCHODNIA V1.0\PRZYCHODNIA ZDROWIA\PRZYCHODNIA ZDROWIA\RESOURCES\RECEPCJAADD.PNG
C:\USERS\MARCIN\DESKTOP\PROJEKT - KOPIA\PROJEKT!!\PRZYCHODNIA V1.0\PRZYCHODNIA ZDROWIA\PRZYCHODNIA ZDROWIA\RESOURCES\DOCTORADD.PNG
C:\USERS\MARCIN\DESKTOP\PROJEKT - KOPIA\PROJEKT!!\PRZYCHODNIA V1.0\PRZYCHODNIA ZDROWIA\PRZYCHODNIA ZDROWIA\RESOURCES\DOCTORDELETE.PNG
C:\USERS\MARCIN\DESKTOP\PROJEKT - KOPIA\PROJEKT!!\PRZYCHODNIA V1.0\PRZYCHODNIA ZDROWIA\PRZYCHODNIA ZDROWIA\RESOURCES\RECEPCJAUPDATE.PNG
C:\USERS\MARCIN\DESKTOP\PROJEKT - KOPIA\PROJEKT!!\PRZYCHODNIA V1.0\PRZYCHODNIA ZDROWIA\PRZYCHODNIA ZDROWIA\RESOURCES\APP-LOGIN-MANAGER-ICON1.PNG
C:\USERS\MARCIN\DESKTOP\PROJEKT - KOPIA\PROJEKT!!\PRZYCHODNIA V1.0\PRZYCHODNIA ZDROWIA\PRZYCHODNIA ZDROWIA\RESOURCES\ADD-EVENT-ICON1.PNG
C:\USERS\MARCIN\DESKTOP\PROJEKT - KOPIA\PROJEKT!!\PRZYCHODNIA V1.0\PRZYCHODNIA ZDROWIA\PRZYCHODNIA ZDROWIA\RESOURCES\YELLOW-CROSS-ICON1.PNG
C:\USERS\MARCIN\DESKTOP\PROJEKT - KOPIA\PROJEKT!!\PRZYCHODNIA V1.0\PRZYCHODNIA ZDROWIA\PRZYCHODNIA ZDROWIA\RESOURCES\BUTTON-DELETE-ICON (2)1.PNG
C:\USERS\MARCIN\DESKTOP\PROJEKT - KOPIA\PROJEKT!!\PRZYCHODNIA V1.0\PRZYCHODNIA ZDROWIA\PRZYCHODNIA ZDROWIA\RESOURCES\PEOPLE-PATIENT-FEMALE-ICON.PNG
C:\USERS\MARCIN\DESKTOP\PROJEKT - KOPIA\PROJEKT!!\PRZYCHODNIA V1.0\PRZYCHODNIA ZDROWIA\PRZYCHODNIA ZDROWIA\RESOURCES\PEOPLE-PATIENT-MALE-ICON.PNG
C:\USERS\MARCIN\DESKTOP\PROJEKT - KOPIA\PROJEKT!!\PRZYCHODNIA V1.0\PRZYCHODNIA ZDROWIA\PRZYCHODNIA ZDROWIA\RESOURCES\RECENT-DOCUMENTS-ICON1.PNG
C:\USERS\MARCIN\DESKTOP\PROJEKT - KOPIA\PROJEKT!!\PRZYCHODNIA V1.0\PRZYCHODNIA ZDROWIA\PRZYCHODNIA ZDROWIA\RESOURCES\DELETE-FILE-ICON.PNG
C:\USERS\MARCIN\DESKTOP\PROJEKT - KOPIA\PROJEKT!!\PRZYCHODNIA V1.0\PRZYCHODNIA ZDROWIA\PRZYCHODNIA ZDROWIA\RESOURCES\REJESTRACJA3.JPG
C:\USERS\MARCIN\DESKTOP\PROJEKT - KOPIA\PROJEKT!!\PRZYCHODNIA V1.0\PRZYCHODNIA ZDROWIA\PRZYCHODNIA ZDROWIA\RESOURCES\PACJENTADD.PNG
C:\USERS\MARCIN\DESKTOP\PROJEKT - KOPIA\PROJEKT!!\PRZYCHODNIA V1.0\PRZYCHODNIA ZDROWIA\PRZYCHODNIA ZDROWIA\RESOURCES\ACTIONS-USER-GROUP-NEW-ICON2.PNG
C:\USERS\MARCIN\DESKTOP\PROJEKT - KOPIA\PROJEKT!!\PRZYCHODNIA V1.0\PRZYCHODNIA ZDROWIA\PRZYCHODNIA ZDROWIA\RESOURCES\PACJENT UPADATE.PNG
C:\USERS\MARCIN\DESKTOP\PROJEKT - KOPIA\PROJEKT!!\PRZYCHODNIA V1.0\PRZYCHODNIA ZDROWIA\PRZYCHODNIA ZDROWIA\RESOURCES\PACJENTDELETE.PNG
^C:\USERS\MARCIN\DESKTOP\PROJEKT - KOPIA\PROJEKT!!\PRZYCHODNIA V1.0\PRZYCHODNIA ZDROWIA\PRZYCHODNIA ZDROWIA\MODUL LEKARZ.RESX
^C:\USERS\MARCIN\DESKTOP\PROJEKT - KOPIA\PROJEKT!!\PRZYCHODNIA V1.0\PRZYCHODNIA ZDROWIA\PRZYCHODNIA ZDROWIA\LOGOWANIE.RESX
^C:\USERS\MARCIN\DESKTOP\PROJEKT - KOPIA\PROJEKT!!\PRZYCHODNIA V1.0\PRZYCHODNIA ZDROWIA\PRZYCHODNIA ZDROWIA\ADMINISTRACJA.RESX
C:\WINDOWS\ASSEMBLY\PUBPOL58.DAT
C:\WINDOWS\MICROSOFT.NET\ASSEMBLY\GAC_MSIL\MICROSOFT.BUILD.TASKS.V4.0\V4.0_4.0.0.0__B03F5F7F11D50A3A\MICROSOFT.BUILD.TASKS.V4.0.DLL
^C:\USERS\MARCIN\DESKTOP\PROJEKT - KOPIA\PROJEKT!!\PRZYCHODNIA V1.0\PRZYCHODNIA ZDROWIA\PRZYCHODNIA ZDROWIA\REJESTRACJA.RESX
